<svg width="20" height="20" viewBox="0 0 20 20" fill="none" xmlns="http://www.w3.org/2000/svg">
<g clip-path="url(#clip0_9_3)">
<path d="M10 0.833336V19.1667" stroke="white" stroke-width="2" stroke-linecap="round" stroke-linejoin="round"/>
<path d="M14.1667 4.16666H7.91667C7.14312 4.16666 6.40125 4.47396 5.85427 5.02094C5.30729 5.56792 5 6.30978 5 7.08333C5 7.85688 5.30729 8.59874 5.85427 9.14573C6.40125 9.69271 7.14312 10 7.91667 10H12.0833C12.8569 10 13.5987 10.3073 14.1457 10.8543C14.6927 11.4013 15 12.1431 15 12.9167C15 13.6902 14.6927 14.4321 14.1457 14.9791C13.5987 15.526 12.8569 15.8333 12.0833 15.8333H5" stroke="white" stroke-width="2" stroke-linecap="round" stroke-linejoin="round"/>
</g>
<defs>
<clipPath id="clip0_9_3">
<rect width="20" height="20" fill="white"/>
</clipPath>
</defs>
</svg>
